<svg width="40" height="40" viewBox="0 0 40 40" fill="none" xmlns="http://www.w3.org/2000/svg">
<circle cx="20" cy="20" r="20" fill="white"/>
<path d="M22.6667 12L24.7111 14.0444L22.1422 16.5956L23.4044 17.8578L25.9556 15.2889L28 17.3333V12H22.6667ZM12 17.3333L14.0444 15.2889L16.5956 17.8578L17.8578 16.5956L15.2889 14.0444L17.3333 12H12V17.3333ZM17.3333 28L15.2889 25.9556L17.8578 23.4044L16.5956 22.1422L14.0444 24.7111L12 22.6667V28H17.3333ZM28 22.6667L25.9556 24.7111L23.4044 22.1422L22.1422 23.4044L24.7111 25.9556L22.6667 28H28V22.6667Z" fill="#F66602"/>
</svg>
