<svg width="38" height="31" viewBox="0 0 38 31" fill="none" xmlns="http://www.w3.org/2000/svg">
<path d="M8.98264 1C8.98264 1 15.9303 9.24777 9.55304 16.7428C3.17578 24.2378 10.4749 29.9512 10.4749 29.9512" stroke="#E7373F" stroke-width="2.10631"/>
<path d="M17.4079 1C17.4079 1 24.3556 9.24777 17.9783 16.7428C11.6011 24.2378 18.9002 29.9512 18.9002 29.9512" stroke="#E7373F" stroke-width="2.10631"/>
<path d="M25.8332 1C25.8332 1 32.7809 9.24777 26.4036 16.7428C20.0264 24.2378 27.3255 29.9512 27.3255 29.9512" stroke="#E7373F" stroke-width="2.10631"/>
<path d="M1 2.68164L37.1575 27.6409" stroke="#E7373F" stroke-width="2.10631"/>
</svg>
